DATA 608 – Knowledge and Visual Analytics: Assignment 1
…
Now imagine you work for an investor and want to see which industries generate the most revenue per employee. Create a chart that makes this information clear. Once again, the distribution per industry should be shown.

First, we can group our data by Industry and calculate the revenue by employee: 

revByEmployee <- inc %>%
  group_by(Industry) %>%
  summarize(TOTAL_REVENUE = sum(Revenue, na.rm=TRUE),
            TOTAL_EMPLOYEES = sum(Employees, na.rm = TRUE),
            REV_PER_EMPLOYEE = sum(Revenue, na.rm=TRUE)/ sum(Employees, na.rm = TRUE)) %>%
  arrange(desc(REV_PER_EMPLOYEE)) %>%
  ungroup()

revByEmployee

## # A tibble: 25 x 4
##    Industry                     TOTAL_REVENUE TOTAL_EMPLOYEES REV_PER_EMPLOYEE
##    <chr>                                <dbl>           <int>            <dbl>
##  1 Computer Hardware              11885700000            9714         1223564.
##  2 Energy                         13771600000           26437          520921.
##  3 Construction                   13174300000           29099          452741.
##  4 Logistics & Transportation     14840500000           39994          371068.
##  5 Consumer Products & Services   14956400000           45464          328972.
##  6 Insurance                       2337900000            7339          318558.
##  7 Manufacturing                  12684000000           43942          288653.
##  8 Retail                         10257400000           37068          276718.
##  9 Financial Services             13150900000           47693          275741.
## 10 Environmental Services          2638800000           10155          259852.
## # ... with 15 more rows
…
